<svg
  aria-hidden="true"
  width="24"
  height="24"
  fill="none"
  className="flex-none text-gray-300"
>
  <path
    d="M10.75 8.75l3.5 3.25-3.5 3.25"
    stroke="currentColor"
    stroke-width="1.5"
    stroke-linecap="round"
    stroke-linejoin="round"
  ></path>
</svg>
